Embedded Shiny App to assess Covid's Seasonality • covidseasonality
…
Get Started

This is a some basic examples what the package does

Access inbuilt datasets such as countries in the Northern and Southern Hemisphere and Tropics

library(covidseasonality)
library(tibble)

Northern_hemis # countries in the Northern Hemisphere
#> # A tibble: 100 x 1
#>    country             
#>    <chr>               
#>  1 Afghanistan         
#>  2 Albania             
#>  3 Andorra             
#>  4 United Arab Emirates
#>  5 Armenia             
#>  6 Austria             
#>  7 Azerbaijan          
#>  8 Belgium             
#>  9 Bangladesh          
#> 10 Bulgaria            
#> # … with 90 more rows
…
