An Introduction to `covidseasonality` package • covidseasonality
…
Running the App

You can run the embedded Shiny app via one line of code.

library(covidseasonality)
# launch_app()

Controlling which countries goes into the app

First you may want to look at the country and their corresponding hemisphere

library(tibble)
country_list
#> # A tibble: 203 x 2
#>    country              hemisphere
#>    <chr>                <chr>     
#>  1 Aruba                T         
#>  2 Afghanistan          N         
#>  3 Angola               T         
#>  4 Anguilla             T         
#>  5 Albania              N         
#>  6 Andorra              N         
#>  7 United Arab Emirates N         
#>  8 Argentina            S         
#>  9 Armenia              N         
#> 10 Antigua & Barbuda    T         
#> # … with 193 more rows

The app relies on one data set that can be obtained through a single function join_data(). Simply filter to the countries you want to analyse in the app.

library(dplyr)

join_data <- country_list %>% 
  filter(country == "Australia") %>% 
  covidseasonality::join_data()

join_data
#> # A tibble: 492,492 x 10
#>    date       country confirmed cases lockdown population  long   lat group
#>    <date>     <chr>       <dbl> <dbl>    <dbl>      <dbl> <dbl> <dbl> <dbl>
#>  1 2020-01-22 Austra…         0    NA        0   25364307  124. -12.4   133
#>  2 2020-01-22 Austra…         0    NA        0   25364307  124. -12.4   133
#>  3 2020-01-22 Austra…         0    NA        0   25364307  124. -12.4   133
#>  4 2020-01-22 Austra…         0    NA        0   25364307  124. -12.4   133
#>  5 2020-01-22 Austra…         0    NA        0   25364307  124. -12.4   133
#>  6 2020-01-22 Austra…         0    NA        0   25364307  159. -54.7   139
#>  7 2020-01-22 Austra…         0    NA        0   25364307  159. -54.7   139
#>  8 2020-01-22 Austra…         0    NA        0   25364307  159. -54.7   139
#>  9 2020-01-22 Austra…         0    NA        0   25364307  159. -54.5   139
#> 10 2020-01-22 Austra…         0    NA        0   25364307  159. -54.5   139
#> # … with 492,482 more rows, and 1 more variable: hemisphere <chr>
…
Australia
49,507,172
195,184
101
0

We could also make plots for countries in each hemisphere. First, to look at countries in Northern hemisphere, Southern hemisphere or Tropics, we use:

Northern_hemis
#> # A tibble: 100 x 1
#>    country             
#>    <chr>               
#>  1 Afghanistan         
#>  2 Albania             
#>  3 Andorra             
#>  4 United Arab Emirates
#>  5 Armenia             
#>  6 Austria             
#>  7 Azerbaijan          
#>  8 Belgium             
#>  9 Bangladesh          
#> 10 Bulgaria            
#> # … with 90 more rows
…
Tropics
#> # A tibble: 86 x 1
#>    country          
#>    <chr>            
#>  1 Aruba            
#>  2 Angola           
#>  3 Anguilla         
#>  4 Antigua & Barbuda
#>  5 Burundi          
#>  6 Benin            
#>  7 Burkina Faso     
#>  8 Bahamas          
#>  9 Belize           
#> 10 Bolivia          
#> # … with 76 more rows
…
